{
  "development": {
    "username": "postgres",
    "password": 1234,
    "database": "mydb",
    "host": "localhost",
    "dialect": "postgres"
  },
  "test": {
    "username": "postgres",
    "password": 1234,
    "database": "todo_test",
    "host": "postgres",
    "dialect": "postgres"
  },
  "production": {
    "username": "postgres",
    "password": 1234,
    "database": "",
    "host": "localhost",
    "dialect": "postgres"
  }
}
